{
  "configVersion": 2,
  "packages": [
    {
      "name": "async",
      "rootUri": "file:///Users/sergiobi23/.pub-cache/hosted/pub.dev/async-2.11.0",
      "packageUri": "lib/",
      "languageVersion": "2.18"
    },
    {
      "name": "audio_session",
      "rootUri": "file:///Users/sergiobi23/.pub-cache/hosted/pub.dev/audio_session-0.1.13",
      "packageUri": "lib/",
      "languageVersion": "2.12"
    },
    {
      "name": "cached_network_image",
      "rootUri": "file:///Users/sergiobi23/.pub-cache/hosted/pub.dev/cached_network_image-3.2.3",
      "packageUri": "lib/",
      "languageVersion": "2.18"
    },
    {
      "name": "cached_network_image_platform_interface",
      "rootUri": "file:///Users/sergiobi23/.pub-cache/hosted/pub.dev/cached_network_image_platform_interface-2.0.0",
      "packageUri": "lib/",
      "languageVersion": "2.18"
    },
    {
      "name": "cached_network_image_web",
      "rootUri": "file:///Users/sergiobi23/.pub-cache/hosted/pub.dev/cached_network_image_web-1.0.2",
      "packageUri": "lib/",
      "languageVersion": "2.18"
    },
    {
      "name": "characters",
      "rootUri": "file:///Users/sergiobi23/.pub-cache/hosted/pub.dev/characters-1.2.1",
      "packageUri": "lib/",
      "languageVersion": "2.12"
    },
    {
      "name": "chewie",
      "rootUri": "file:///Users/sergiobi23/.pub-cache/hosted/pub.dev/chewie-1.4.0",
      "packageUri": "lib/",
      "languageVersion": "2.13"
    },
    {
      "name": "clock",
      "rootUri": "file:///Users/sergiobi23/.pub-cache/hosted/pub.dev/clock-1.1.1",
      "packageUri": "lib/",
      "languageVersion": "2.12"
    },
    {
      "name": "collection",
      "rootUri": "file:///Users/sergiobi23/.pub-cache/hosted/pub.dev/collection-1.17.0",
      "packageUri": "lib/",
      "languageVersion": "2.12"
    },
    {
      "name": "cross_file",
      "rootUri": "file:///Users/sergiobi23/.pub-cache/hosted/pub.dev/cross_file-0.3.3+4",
      "packageUri": "lib/",
      "languageVersion": "2.17"
    },
    {
      "name": "crypto",
      "rootUri": "file:///Users/sergiobi23/.pub-cache/hosted/pub.dev/crypto-3.0.2",
      "packageUri": "lib/",
      "languageVersion": "2.14"
    },
    {
      "name": "csslib",
      "rootUri": "file:///Users/sergiobi23/.pub-cache/hosted/pub.dev/csslib-0.17.2",
      "packageUri": "lib/",
      "languageVersion": "2.12"
    },
    {
      "name": "cunning_document_scanner",
      "rootUri": "file:///Users/sergiobi23/.pub-cache/hosted/pub.dev/cunning_document_scanner-1.1.2",
      "packageUri": "lib/",
      "languageVersion": "2.15"
    },
    {
      "name": "cupertino_icons",
      "rootUri": "file:///Users/sergiobi23/.pub-cache/hosted/pub.dev/cupertino_icons-1.0.5",
      "packageUri": "lib/",
      "languageVersion": "2.12"
    },
    {
      "name": "diacritic",
      "rootUri": "file:///Users/sergiobi23/.pub-cache/hosted/pub.dev/diacritic-0.1.3",
      "packageUri": "lib/",
      "languageVersion": "2.12"
    },
    {
      "name": "ffi",
      "rootUri": "file:///Users/sergiobi23/.pub-cache/hosted/pub.dev/ffi-2.0.1",
      "packageUri": "lib/",
      "languageVersion": "2.17"
    },
    {
      "name": "file",
      "rootUri": "file:///Users/sergiobi23/.pub-cache/hosted/pub.dev/file-6.1.4",
      "packageUri": "lib/",
      "languageVersion": "2.12"
    },
    {
      "name": "file_picker",
      "rootUri": "file:///Users/sergiobi23/.pub-cache/hosted/pub.dev/file_picker-5.2.6",
      "packageUri": "lib/",
      "languageVersion": "2.17"
    },
    {
      "name": "file_utils",
      "rootUri": "file:///Users/sergiobi23/.pub-cache/git/gersoft-flutter-file-utils-library-17a08dbd4737e8123b4fa19c36c5022589c8588a/",
      "packageUri": "lib/",
      "languageVersion": "2.18"
    },
    {
      "name": "flutter",
      "rootUri": "file:///Users/sergiobi23/Developer/flutter/packages/flutter",
      "packageUri": "lib/",
      "languageVersion": "2.17"
    },
    {
      "name": "flutter_blurhash",
      "rootUri": "file:///Users/sergiobi23/.pub-cache/hosted/pub.dev/flutter_blurhash-0.7.0",
      "packageUri": "lib/",
      "languageVersion": "2.15"
    },
    {
      "name": "flutter_cache_manager",
      "rootUri": "file:///Users/sergiobi23/.pub-cache/hosted/pub.dev/flutter_cache_manager-3.3.0",
      "packageUri": "lib/",
      "languageVersion": "2.12"
    },
    {
      "name": "flutter_email_sender",
      "rootUri": "file:///Users/sergiobi23/.pub-cache/hosted/pub.dev/flutter_email_sender-5.2.0",
      "packageUri": "lib/",
      "languageVersion": "2.12"
    },
    {
      "name": "flutter_lints",
      "rootUri": "file:///Users/sergiobi23/.pub-cache/hosted/pub.dev/flutter_lints-2.0.1",
      "packageUri": "lib/",
      "languageVersion": "2.17"
    },
    {
      "name": "flutter_phone_direct_caller",
      "rootUri": "file:///Users/sergiobi23/.pub-cache/hosted/pub.dev/flutter_phone_direct_caller-2.1.1",
      "packageUri": "lib/",
      "languageVersion": "2.12"
    },
    {
      "name": "flutter_plugin_android_lifecycle",
      "rootUri": "file:///Users/sergiobi23/.pub-cache/hosted/pub.dev/flutter_plugin_android_lifecycle-2.0.9",
      "packageUri": "lib/",
      "languageVersion": "2.12"
    },
    {
      "name": "flutter_svg",
      "rootUri": "file:///Users/sergiobi23/.pub-cache/hosted/pub.dev/flutter_svg-1.1.6",
      "packageUri": "lib/",
      "languageVersion": "2.17"
    },
    {
      "name": "flutter_web_plugins",
      "rootUri": "file:///Users/sergiobi23/Developer/flutter/packages/flutter_web_plugins",
      "packageUri": "lib/",
      "languageVersion": "2.17"
    },
    {
      "name": "flutter_widget_from_html",
      "rootUri": "file:///Users/sergiobi23/.pub-cache/hosted/pub.dev/flutter_widget_from_html-0.9.1",
      "packageUri": "lib/",
      "languageVersion": "2.18"
    },
    {
      "name": "flutter_widget_from_html_core",
      "rootUri": "file:///Users/sergiobi23/.pub-cache/hosted/pub.dev/flutter_widget_from_html_core-0.9.1",
      "packageUri": "lib/",
      "languageVersion": "2.13"
    },
    {
      "name": "fluttertoast",
      "rootUri": "file:///Users/sergiobi23/.pub-cache/hosted/pub.dev/fluttertoast-8.2.1",
      "packageUri": "lib/",
      "languageVersion": "2.12"
    },
    {
      "name": "fwfh_cached_network_image",
      "rootUri": "file:///Users/sergiobi23/.pub-cache/hosted/pub.dev/fwfh_cached_network_image-0.7.0+4",
      "packageUri": "lib/",
      "languageVersion": "2.13"
    },
    {
      "name": "fwfh_chewie",
      "rootUri": "file:///Users/sergiobi23/.pub-cache/hosted/pub.dev/fwfh_chewie-0.7.1+1",
      "packageUri": "lib/",
      "languageVersion": "2.14"
    },
    {
      "name": "fwfh_just_audio",
      "rootUri": "file:///Users/sergiobi23/.pub-cache/hosted/pub.dev/fwfh_just_audio-0.9.0+1",
      "packageUri": "lib/",
      "languageVersion": "2.13"
    },
    {
      "name": "fwfh_svg",
      "rootUri": "file:///Users/sergiobi23/.pub-cache/hosted/pub.dev/fwfh_svg-0.7.2+1",
      "packageUri": "lib/",
      "languageVersion": "2.14"
    },
    {
      "name": "fwfh_text_style",
      "rootUri": "file:///Users/sergiobi23/.pub-cache/hosted/pub.dev/fwfh_text_style-2.22.08+1",
      "packageUri": "lib/",
      "languageVersion": "2.12"
    },
    {
      "name": "fwfh_url_launcher",
      "rootUri": "file:///Users/sergiobi23/.pub-cache/hosted/pub.dev/fwfh_url_launcher-0.9.0+1",
      "packageUri": "lib/",
      "languageVersion": "2.13"
    },
    {
      "name": "fwfh_webview",
      "rootUri": "file:///Users/sergiobi23/.pub-cache/hosted/pub.dev/fwfh_webview-0.7.0+1",
      "packageUri": "lib/",
      "languageVersion": "2.17"
    },
    {
      "name": "html",
      "rootUri": "file:///Users/sergiobi23/.pub-cache/hosted/pub.dev/html-0.15.2",
      "packageUri": "lib/",
      "languageVersion": "2.17"
    },
    {
      "name": "html_character_entities",
      "rootUri": "file:///Users/sergiobi23/.pub-cache/hosted/pub.dev/html_character_entities-1.0.0+1",
      "packageUri": "lib/",
      "languageVersion": "2.12"
    },
    {
      "name": "http",
      "rootUri": "file:///Users/sergiobi23/.pub-cache/hosted/pub.dev/http-0.13.5",
      "packageUri": "lib/",
      "languageVersion": "2.14"
    },
    {
      "name": "http_parser",
      "rootUri": "file:///Users/sergiobi23/.pub-cache/hosted/pub.dev/http_parser-4.0.2",
      "packageUri": "lib/",
      "languageVersion": "2.12"
    },
    {
      "name": "image_cropper",
      "rootUri": "file:///Users/sergiobi23/.pub-cache/hosted/pub.dev/image_cropper-3.0.1",
      "packageUri": "lib/",
      "languageVersion": "2.12"
    },
    {
      "name": "image_cropper_for_web",
      "rootUri": "file:///Users/sergiobi23/.pub-cache/hosted/pub.dev/image_cropper_for_web-1.0.3",
      "packageUri": "lib/",
      "languageVersion": "2.16"
    },
    {
      "name": "image_cropper_platform_interface",
      "rootUri": "file:///Users/sergiobi23/.pub-cache/hosted/pub.dev/image_cropper_platform_interface-3.0.3",
      "packageUri": "lib/",
      "languageVersion": "2.16"
    },
    {
      "name": "image_picker",
      "rootUri": "file:///Users/sergiobi23/.pub-cache/hosted/pub.dev/image_picker-0.8.7",
      "packageUri": "lib/",
      "languageVersion": "2.17"
    },
    {
      "name": "image_picker_android",
      "rootUri": "file:///Users/sergiobi23/.pub-cache/hosted/pub.dev/image_picker_android-0.8.6+4",
      "packageUri": "lib/",
      "languageVersion": "2.17"
    },
    {
      "name": "image_picker_for_web",
      "rootUri": "file:///Users/sergiobi23/.pub-cache/hosted/pub.dev/image_picker_for_web-2.1.12",
      "packageUri": "lib/",
      "languageVersion": "2.17"
    },
    {
      "name": "image_picker_ios",
      "rootUri": "file:///Users/sergiobi23/.pub-cache/hosted/pub.dev/image_picker_ios-0.8.7+1",
      "packageUri": "lib/",
      "languageVersion": "2.18"
    },
    {
      "name": "image_picker_platform_interface",
      "rootUri": "file:///Users/sergiobi23/.pub-cache/hosted/pub.dev/image_picker_platform_interface-2.6.3",
      "packageUri": "lib/",
      "languageVersion": "2.12"
    },
    {
      "name": "intl",
      "rootUri": "file:///Users/sergiobi23/.pub-cache/hosted/pub.dev/intl-0.17.0",
      "packageUri": "lib/",
      "languageVersion": "2.12"
    },
    {
      "name": "js",
      "rootUri": "file:///Users/sergiobi23/.pub-cache/hosted/pub.dev/js-0.6.5",
      "packageUri": "lib/",
      "languageVersion": "2.16"
    },
    {
      "name": "just_audio",
      "rootUri": "file:///Users/sergiobi23/.pub-cache/hosted/pub.dev/just_audio-0.9.31",
      "packageUri": "lib/",
      "languageVersion": "2.12"
    },
    {
      "name": "just_audio_platform_interface",
      "rootUri": "file:///Users/sergiobi23/.pub-cache/hosted/pub.dev/just_audio_platform_interface-4.2.0",
      "packageUri": "lib/",
      "languageVersion": "2.12"
    },
    {
      "name": "just_audio_web",
      "rootUri": "file:///Users/sergiobi23/.pub-cache/hosted/pub.dev/just_audio_web-0.4.7",
      "packageUri": "lib/",
      "languageVersion": "2.12"
    },
    {
      "name": "lints",
      "rootUri": "file:///Users/sergiobi23/.pub-cache/hosted/pub.dev/lints-2.0.1",
      "packageUri": "lib/",
      "languageVersion": "2.17"
    },
    {
      "name": "material_color_utilities",
      "rootUri": "file:///Users/sergiobi23/.pub-cache/hosted/pub.dev/material_color_utilities-0.2.0",
      "packageUri": "lib/",
      "languageVersion": "2.13"
    },
    {
      "name": "meta",
      "rootUri": "file:///Users/sergiobi23/.pub-cache/hosted/pub.dev/meta-1.8.0",
      "packageUri": "lib/",
      "languageVersion": "2.12"
    },
    {
      "name": "mime",
      "rootUri": "file:///Users/sergiobi23/.pub-cache/hosted/pub.dev/mime-1.0.4",
      "packageUri": "lib/",
      "languageVersion": "2.18"
    },
    {
      "name": "nested",
      "rootUri": "file:///Users/sergiobi23/.pub-cache/hosted/pub.dev/nested-1.0.0",
      "packageUri": "lib/",
      "languageVersion": "2.12"
    },
    {
      "name": "octo_image",
      "rootUri": "file:///Users/sergiobi23/.pub-cache/hosted/pub.dev/octo_image-1.0.2",
      "packageUri": "lib/",
      "languageVersion": "2.12"
    },
    {
      "name": "path",
      "rootUri": "file:///Users/sergiobi23/.pub-cache/hosted/pub.dev/path-1.8.3",
      "packageUri": "lib/",
      "languageVersion": "2.12"
    },
    {
      "name": "path_drawing",
      "rootUri": "file:///Users/sergiobi23/.pub-cache/hosted/pub.dev/path_drawing-1.0.1",
      "packageUri": "lib/",
      "languageVersion": "2.12"
    },
    {
      "name": "path_parsing",
      "rootUri": "file:///Users/sergiobi23/.pub-cache/hosted/pub.dev/path_parsing-1.0.1",
      "packageUri": "lib/",
      "languageVersion": "2.12"
    },
    {
      "name": "path_provider",
      "rootUri": "file:///Users/sergiobi23/.pub-cache/hosted/pub.dev/path_provider-2.0.13",
      "packageUri": "lib/",
      "languageVersion": "2.14"
    },
    {
      "name": "path_provider_android",
      "rootUri": "file:///Users/sergiobi23/.pub-cache/hosted/pub.dev/path_provider_android-2.0.24",
      "packageUri": "lib/",
      "languageVersion": "2.17"
    },
    {
      "name": "path_provider_foundation",
      "rootUri": "file:///Users/sergiobi23/.pub-cache/hosted/pub.dev/path_provider_foundation-2.2.0",
      "packageUri": "lib/",
      "languageVersion": "2.17"
    },
    {
      "name": "path_provider_linux",
      "rootUri": "file:///Users/sergiobi23/.pub-cache/hosted/pub.dev/path_provider_linux-2.1.10",
      "packageUri": "lib/",
      "languageVersion": "2.17"
    },
    {
      "name": "path_provider_platform_interface",
      "rootUri": "file:///Users/sergiobi23/.pub-cache/hosted/pub.dev/path_provider_platform_interface-2.0.6",
      "packageUri": "lib/",
      "languageVersion": "2.12"
    },
    {
      "name": "path_provider_windows",
      "rootUri": "file:///Users/sergiobi23/.pub-cache/hosted/pub.dev/path_provider_windows-2.1.5",
      "packageUri": "lib/",
      "languageVersion": "2.17"
    },
    {
      "name": "pedantic",
      "rootUri": "file:///Users/sergiobi23/.pub-cache/hosted/pub.dev/pedantic-1.11.1",
      "packageUri": "lib/",
      "languageVersion": "2.12"
    },
    {
      "name": "permission_handler",
      "rootUri": "file:///Users/sergiobi23/.pub-cache/hosted/pub.dev/permission_handler-10.2.0",
      "packageUri": "lib/",
      "languageVersion": "2.15"
    },
    {
      "name": "permission_handler_android",
      "rootUri": "file:///Users/sergiobi23/.pub-cache/hosted/pub.dev/permission_handler_android-10.2.0",
      "packageUri": "lib/",
      "languageVersion": "2.15"
    },
    {
      "name": "permission_handler_apple",
      "rootUri": "file:///Users/sergiobi23/.pub-cache/hosted/pub.dev/permission_handler_apple-9.0.7",
      "packageUri": "lib/",
      "languageVersion": "2.15"
    },
    {
      "name": "permission_handler_platform_interface",
      "rootUri": "file:///Users/sergiobi23/.pub-cache/hosted/pub.dev/permission_handler_platform_interface-3.9.0",
      "packageUri": "lib/",
      "languageVersion": "2.14"
    },
    {
      "name": "permission_handler_windows",
      "rootUri": "file:///Users/sergiobi23/.pub-cache/hosted/pub.dev/permission_handler_windows-0.1.2",
      "packageUri": "lib/",
      "languageVersion": "2.12"
    },
    {
      "name": "petitparser",
      "rootUri": "file:///Users/sergiobi23/.pub-cache/hosted/pub.dev/petitparser-5.1.0",
      "packageUri": "lib/",
      "languageVersion": "2.18"
    },
    {
      "name": "platform",
      "rootUri": "file:///Users/sergiobi23/.pub-cache/hosted/pub.dev/platform-3.1.0",
      "packageUri": "lib/",
      "languageVersion": "2.12"
    },
    {
      "name": "plugin_platform_interface",
      "rootUri": "file:///Users/sergiobi23/.pub-cache/hosted/pub.dev/plugin_platform_interface-2.1.4",
      "packageUri": "lib/",
      "languageVersion": "2.17"
    },
    {
      "name": "process",
      "rootUri": "file:///Users/sergiobi23/.pub-cache/hosted/pub.dev/process-4.2.4",
      "packageUri": "lib/",
      "languageVersion": "2.14"
    },
    {
      "name": "provider",
      "rootUri": "file:///Users/sergiobi23/.pub-cache/hosted/pub.dev/provider-6.0.5",
      "packageUri": "lib/",
      "languageVersion": "2.12"
    },
    {
      "name": "rxdart",
      "rootUri": "file:///Users/sergiobi23/.pub-cache/hosted/pub.dev/rxdart-0.27.7",
      "packageUri": "lib/",
      "languageVersion": "2.12"
    },
    {
      "name": "share",
      "rootUri": "file:///Users/sergiobi23/.pub-cache/hosted/pub.dev/share-2.0.4",
      "packageUri": "lib/",
      "languageVersion": "2.12"
    },
    {
      "name": "sky_engine",
      "rootUri": "file:///Users/sergiobi23/Developer/flutter/bin/cache/pkg/sky_engine",
      "packageUri": "lib/",
      "languageVersion": "2.12"
    },
    {
      "name": "source_span",
      "rootUri": "file:///Users/sergiobi23/.pub-cache/hosted/pub.dev/source_span-1.9.1",
      "packageUri": "lib/",
      "languageVersion": "2.14"
    },
    {
      "name": "sqflite",
      "rootUri": "file:///Users/sergiobi23/.pub-cache/hosted/pub.dev/sqflite-2.2.6",
      "packageUri": "lib/",
      "languageVersion": "2.18"
    },
    {
      "name": "sqflite_common",
      "rootUri": "file:///Users/sergiobi23/.pub-cache/hosted/pub.dev/sqflite_common-2.4.3",
      "packageUri": "lib/",
      "languageVersion": "2.18"
    },
    {
      "name": "string_scanner",
      "rootUri": "file:///Users/sergiobi23/.pub-cache/hosted/pub.dev/string_scanner-1.2.0",
      "packageUri": "lib/",
      "languageVersion": "2.18"
    },
    {
      "name": "string_validator",
      "rootUri": "file:///Users/sergiobi23/.pub-cache/hosted/pub.dev/string_validator-0.3.0",
      "packageUri": "lib/",
      "languageVersion": "2.12"
    },
    {
      "name": "synchronized",
      "rootUri": "file:///Users/sergiobi23/.pub-cache/hosted/pub.dev/synchronized-3.0.1",
      "packageUri": "lib/",
      "languageVersion": "2.18"
    },
    {
      "name": "term_glyph",
      "rootUri": "file:///Users/sergiobi23/.pub-cache/hosted/pub.dev/term_glyph-1.2.1",
      "packageUri": "lib/",
      "languageVersion": "2.12"
    },
    {
      "name": "typed_data",
      "rootUri": "file:///Users/sergiobi23/.pub-cache/hosted/pub.dev/typed_data-1.3.1",
      "packageUri": "lib/",
      "languageVersion": "2.12"
    },
    {
      "name": "url_launcher",
      "rootUri": "file:///Users/sergiobi23/.pub-cache/hosted/pub.dev/url_launcher-6.1.10",
      "packageUri": "lib/",
      "languageVersion": "2.14"
    },
    {
      "name": "url_launcher_android",
      "rootUri": "file:///Users/sergiobi23/.pub-cache/hosted/pub.dev/url_launcher_android-6.0.25",
      "packageUri": "lib/",
      "languageVersion": "2.17"
    },
    {
      "name": "url_launcher_ios",
      "rootUri": "file:///Users/sergiobi23/.pub-cache/hosted/pub.dev/url_launcher_ios-6.1.2",
      "packageUri": "lib/",
      "languageVersion": "2.18"
    },
    {
      "name": "url_launcher_linux",
      "rootUri": "file:///Users/sergiobi23/.pub-cache/hosted/pub.dev/url_launcher_linux-3.0.4",
      "packageUri": "lib/",
      "languageVersion": "2.17"
    },
    {
      "name": "url_launcher_macos",
      "rootUri": "file:///Users/sergiobi23/.pub-cache/hosted/pub.dev/url_launcher_macos-3.0.4",
      "packageUri": "lib/",
      "languageVersion": "2.17"
    },
    {
      "name": "url_launcher_platform_interface",
      "rootUri": "file:///Users/sergiobi23/.pub-cache/hosted/pub.dev/url_launcher_platform_interface-2.1.2",
      "packageUri": "lib/",
      "languageVersion": "2.12"
    },
    {
      "name": "url_launcher_web",
      "rootUri": "file:///Users/sergiobi23/.pub-cache/hosted/pub.dev/url_launcher_web-2.0.16",
      "packageUri": "lib/",
      "languageVersion": "2.17"
    },
    {
      "name": "url_launcher_windows",
      "rootUri": "file:///Users/sergiobi23/.pub-cache/hosted/pub.dev/url_launcher_windows-3.0.5",
      "packageUri": "lib/",
      "languageVersion": "2.17"
    },
    {
      "name": "uuid",
      "rootUri": "file:///Users/sergiobi23/.pub-cache/hosted/pub.dev/uuid-3.0.7",
      "packageUri": "lib/",
      "languageVersion": "2.12"
    },
    {
      "name": "vector_math",
      "rootUri": "file:///Users/sergiobi23/.pub-cache/hosted/pub.dev/vector_math-2.1.4",
      "packageUri": "lib/",
      "languageVersion": "2.14"
    },
    {
      "name": "video_player",
      "rootUri": "file:///Users/sergiobi23/.pub-cache/hosted/pub.dev/video_player-2.6.0",
      "packageUri": "lib/",
      "languageVersion": "2.17"
    },
    {
      "name": "video_player_android",
      "rootUri": "file:///Users/sergiobi23/.pub-cache/hosted/pub.dev/video_player_android-2.4.2",
      "packageUri": "lib/",
      "languageVersion": "2.17"
    },
    {
      "name": "video_player_avfoundation",
      "rootUri": "file:///Users/sergiobi23/.pub-cache/hosted/pub.dev/video_player_avfoundation-2.4.2",
      "packageUri": "lib/",
      "languageVersion": "2.18"
    },
    {
      "name": "video_player_platform_interface",
      "rootUri": "file:///Users/sergiobi23/.pub-cache/hosted/pub.dev/video_player_platform_interface-6.1.0",
      "packageUri": "lib/",
      "languageVersion": "2.17"
    },
    {
      "name": "video_player_web",
      "rootUri": "file:///Users/sergiobi23/.pub-cache/hosted/pub.dev/video_player_web-2.0.15",
      "packageUri": "lib/",
      "languageVersion": "2.17"
    },
    {
      "name": "wakelock",
      "rootUri": "file:///Users/sergiobi23/.pub-cache/hosted/pub.dev/wakelock-0.6.2",
      "packageUri": "lib/",
      "languageVersion": "2.12"
    },
    {
      "name": "wakelock_macos",
      "rootUri": "file:///Users/sergiobi23/.pub-cache/hosted/pub.dev/wakelock_macos-0.4.0",
      "packageUri": "lib/",
      "languageVersion": "2.12"
    },
    {
      "name": "wakelock_platform_interface",
      "rootUri": "file:///Users/sergiobi23/.pub-cache/hosted/pub.dev/wakelock_platform_interface-0.3.0",
      "packageUri": "lib/",
      "languageVersion": "2.12"
    },
    {
      "name": "wakelock_web",
      "rootUri": "file:///Users/sergiobi23/.pub-cache/hosted/pub.dev/wakelock_web-0.4.0",
      "packageUri": "lib/",
      "languageVersion": "2.12"
    },
    {
      "name": "wakelock_windows",
      "rootUri": "file:///Users/sergiobi23/.pub-cache/hosted/pub.dev/wakelock_windows-0.2.1",
      "packageUri": "lib/",
      "languageVersion": "2.12"
    },
    {
      "name": "webview_flutter",
      "rootUri": "file:///Users/sergiobi23/.pub-cache/hosted/pub.dev/webview_flutter-4.0.6",
      "packageUri": "lib/",
      "languageVersion": "2.17"
    },
    {
      "name": "webview_flutter_android",
      "rootUri": "file:///Users/sergiobi23/.pub-cache/hosted/pub.dev/webview_flutter_android-3.4.2",
      "packageUri": "lib/",
      "languageVersion": "2.17"
    },
    {
      "name": "webview_flutter_platform_interface",
      "rootUri": "file:///Users/sergiobi23/.pub-cache/hosted/pub.dev/webview_flutter_platform_interface-2.1.0",
      "packageUri": "lib/",
      "languageVersion": "2.17"
    },
    {
      "name": "webview_flutter_wkwebview",
      "rootUri": "file:///Users/sergiobi23/.pub-cache/hosted/pub.dev/webview_flutter_wkwebview-3.2.1",
      "packageUri": "lib/",
      "languageVersion": "2.18"
    },
    {
      "name": "win32",
      "rootUri": "file:///Users/sergiobi23/.pub-cache/hosted/pub.dev/win32-3.1.3",
      "packageUri": "lib/",
      "languageVersion": "2.17"
    },
    {
      "name": "xdg_directories",
      "rootUri": "file:///Users/sergiobi23/.pub-cache/hosted/pub.dev/xdg_directories-1.0.0",
      "packageUri": "lib/",
      "languageVersion": "2.17"
    },
    {
      "name": "xml",
      "rootUri": "file:///Users/sergiobi23/.pub-cache/hosted/pub.dev/xml-6.2.2",
      "packageUri": "lib/",
      "languageVersion": "2.18"
    },
    {
      "name": "utils",
      "rootUri": "../",
      "packageUri": "lib/",
      "languageVersion": "2.18"
    }
  ],
  "generated": "2023-03-17T09:01:55.427300Z",
  "generator": "pub",
  "generatorVersion": "2.19.0"
}
